# MagicaVoxel @ Ephtracy

# group
o 

# material
mtllib hongo.mtl
usemtl palette

# normals
vn -1 0 0
vn 1 0 0
vn 0 0 1
vn 0 0 -1
vn 0 -1 0
vn 0 1 0

# texcoords
vt 0.841797 0.5
vt 0.861328 0.5
vt 0.869141 0.5
vt 0.958984 0.5
vt 0.990234 0.5

# verts
v 1.6 2.3 -1.5
v 1.6 2.3 -1.6
v 1.6 2.3 -2.1
v 1.6 2.3 -2.2
v 1.6 2.3 -2.3
v 1.6 2.4 -1.5
v 1.6 2.4 -1.6
v 1.6 2.4 -1.7
v 1.6 2.4 -1.8
v 1.6 2.4 -1.9
v 1.6 2.4 -2
v 1.6 2.4 -2.1
v 1.6 2.4 -2.2
v 1.6 2.5 -1.5
v 1.6 2.5 -1.7
v 1.6 2.5 -1.8
v 1.6 2.5 -1.9
v 1.6 2.5 -2
v 1.6 2.5 -2.3
v 1.7 2 -1.6
v 1.7 2 -2.2
v 1.7 2.3 -1.6
v 1.7 2.3 -2.1
v 1.7 2.3 -2.2
v 1.7 2.5 -1.7
v 1.7 2.5 -1.8
v 1.7 2.5 -2
v 1.7 2.5 -2.1
v 1.7 2.6 -1.7
v 1.7 2.6 -1.8
v 1.7 2.6 -2
v 1.7 2.6 -2.1
v 1.8 2.5 -1.6
v 1.8 2.5 -1.7
v 1.8 2.5 -1.8
v 1.8 2.5 -2
v 1.8 2.5 -2.1
v 1.8 2.5 -2.2
v 1.8 2.6 -1.6
v 1.8 2.6 -1.7
v 1.8 2.6 -1.8
v 1.8 2.6 -1.9
v 1.8 2.6 -2
v 1.8 2.6 -2.1
v 1.8 2.6 -2.2
v 1.8 2.7 -1.7
v 1.8 2.7 -1.8
v 1.8 2.7 -1.9
v 1.8 2.7 -2.1
v 1.9 2.7 -1.8
v 1.9 2.7 -1.9
v 1.9 2.7 -2
v 1.9 2.8 -1.8
v 1.9 2.8 -2
v 2.1 2.5 -1.6
v 2.1 2.5 -1.7
v 2.1 2.5 -2.1
v 2.1 2.5 -2.2
v 2.1 2.6 -1.6
v 2.1 2.6 -1.7
v 2.1 2.6 -2
v 2.1 2.6 -2.1
v 2.1 2.6 -2.2
v 2.1 2.7 -2
v 2.1 2.7 -2.1
v 1.9 2.5 -1.6
v 1.9 2.5 -1.7
v 1.9 2.5 -2.1
v 1.9 2.5 -2.2
v 1.9 2.6 -1.6
v 1.9 2.6 -1.7
v 1.9 2.6 -2
v 1.9 2.6 -2.1
v 1.9 2.6 -2.2
v 1.9 2.7 -2
v 1.9 2.7 -2.1
v 2.1 2.7 -1.8
v 2.1 2.7 -1.9
v 2.1 2.7 -2
v 2.1 2.8 -1.8
v 2.1 2.8 -1.9
v 2.1 2.8 -2
v 2.2 2.5 -1.6
v 2.2 2.5 -1.7
v 2.2 2.5 -1.8
v 2.2 2.5 -2
v 2.2 2.5 -2.1
v 2.2 2.5 -2.2
v 2.2 2.6 -1.6
v 2.2 2.6 -1.7
v 2.2 2.6 -1.8
v 2.2 2.6 -1.9
v 2.2 2.6 -2
v 2.2 2.6 -2.1
v 2.2 2.6 -2.2
v 2.2 2.7 -1.7
v 2.2 2.7 -1.9
v 2.2 2.7 -2
v 2.2 2.7 -2.1
v 2.3 2 -1.6
v 2.3 2 -2.2
v 2.3 2.3 -1.6
v 2.3 2.3 -1.7
v 2.3 2.3 -1.8
v 2.3 2.3 -2.2
v 2.3 2.5 -1.7
v 2.3 2.5 -1.8
v 2.3 2.5 -2
v 2.3 2.5 -2.1
v 2.3 2.6 -1.7
v 2.3 2.6 -1.8
v 2.3 2.6 -2
v 2.3 2.6 -2.1
v 2.4 2.3 -1.5
v 2.4 2.3 -1.7
v 2.4 2.3 -1.8
v 2.4 2.3 -2.2
v 2.4 2.3 -2.3
v 2.4 2.4 -1.7
v 2.4 2.4 -1.8
v 2.4 2.4 -1.9
v 2.4 2.4 -2
v 2.4 2.4 -2.1
v 2.4 2.4 -2.2
v 2.4 2.4 -2.3
v 2.4 2.5 -1.5
v 2.4 2.5 -1.8
v 2.4 2.5 -1.9
v 2.4 2.5 -2
v 2.4 2.5 -2.1
v 2.4 2.5 -2.3
v 1.6 2.3 -1.5
v 1.6 2.4 -1.5
v 1.6 2.5 -1.5
v 1.7 2.3 -1.5
v 1.7 2.4 -1.5
v 1.9 2.4 -1.5
v 1.9 2.5 -1.5
v 2 2.4 -1.5
v 2 2.5 -1.5
v 2.2 2.3 -1.5
v 2.2 2.4 -1.5
v 2.3 2.3 -1.5
v 2.3 2.4 -1.5
v 2.4 2.3 -1.5
v 2.4 2.5 -1.5
v 1.7 2 -1.6
v 1.7 2.3 -1.6
v 1.8 2.1 -1.6
v 1.8 2.3 -1.6
v 1.8 2.5 -1.6
v 1.8 2.6 -1.6
v 1.9 2.1 -1.6
v 1.9 2.3 -1.6
v 1.9 2.5 -1.6
v 1.9 2.6 -1.6
v 2.1 2.1 -1.6
v 2.1 2.3 -1.6
v 2.1 2.5 -1.6
v 2.1 2.6 -1.6
v 2.2 2.1 -1.6
v 2.2 2.3 -1.6
v 2.2 2.5 -1.6
v 2.2 2.6 -1.6
v 2.3 2 -1.6
v 2.3 2.3 -1.6
v 1.7 2.5 -1.7
v 1.7 2.6 -1.7
v 1.8 2.5 -1.7
v 1.8 2.6 -1.7
v 1.8 2.7 -1.7
v 1.9 2.5 -1.7
v 1.9 2.6 -1.7
v 1.9 2.7 -1.7
v 2 2.6 -1.7
v 2 2.7 -1.7
v 2.1 2.5 -1.7
v 2.1 2.6 -1.7
v 2.2 2.5 -1.7
v 2.2 2.6 -1.7
v 2.2 2.7 -1.7
v 2.3 2.5 -1.7
v 2.3 2.6 -1.7
v 1.9 2.7 -1.8
v 1.9 2.8 -1.8
v 2 2.7 -1.8
v 2 2.8 -1.8
v 2.1 2.7 -1.8
v 2.1 2.8 -1.8
v 1.7 2.5 -2
v 1.7 2.6 -2
v 1.8 2.5 -2
v 1.8 2.6 -2
v 2.2 2.5 -2
v 2.2 2.6 -2
v 2.3 2.5 -2
v 2.3 2.6 -2
v 1.7 2.5 -1.8
v 1.7 2.6 -1.8
v 1.8 2.5 -1.8
v 1.8 2.6 -1.8
v 2.2 2.5 -1.8
v 2.2 2.6 -1.8
v 2.3 2.5 -1.8
v 2.3 2.6 -1.8
v 1.9 2.6 -2
v 1.9 2.7 -2
v 1.9 2.8 -2
v 2.1 2.6 -2
v 2.1 2.7 -2
v 2.1 2.8 -2
v 1.7 2.5 -2.1
v 1.7 2.6 -2.1
v 1.8 2.5 -2.1
v 1.8 2.6 -2.1
v 1.8 2.7 -2.1
v 1.9 2.5 -2.1
v 1.9 2.6 -2.1
v 1.9 2.7 -2.1
v 2.1 2.5 -2.1
v 2.1 2.6 -2.1
v 2.1 2.7 -2.1
v 2.2 2.5 -2.1
v 2.2 2.6 -2.1
v 2.2 2.7 -2.1
v 2.3 2.5 -2.1
v 2.3 2.6 -2.1
v 1.7 2 -2.2
v 1.7 2.3 -2.2
v 1.8 2.3 -2.2
v 1.8 2.5 -2.2
v 1.8 2.6 -2.2
v 1.9 2.3 -2.2
v 1.9 2.5 -2.2
v 1.9 2.6 -2.2
v 2.1 2.5 -2.2
v 2.1 2.6 -2.2
v 2.2 2.5 -2.2
v 2.2 2.6 -2.2
v 2.3 2 -2.2
v 2.3 2.3 -2.2
v 1.6 2.3 -2.3
v 1.6 2.5 -2.3
v 1.7 2.4 -2.3
v 1.7 2.5 -2.3
v 1.8 2.3 -2.3
v 1.8 2.4 -2.3
v 1.8 2.5 -2.3
v 1.9 2.3 -2.3
v 1.9 2.4 -2.3
v 2 2.4 -2.3
v 2 2.5 -2.3
v 2.1 2.4 -2.3
v 2.1 2.5 -2.3
v 2.2 2.4 -2.3
v 2.2 2.5 -2.3
v 2.3 2.3 -2.3
v 2.3 2.4 -2.3
v 2.3 2.5 -2.3
v 2.4 2.3 -2.3
v 2.4 2.4 -2.3
v 2.4 2.5 -2.3
v 1.7 2 -1.6
v 2.3 2 -1.6
v 1.7 2 -2.2
v 2.3 2 -2.2
v 1.6 2.3 -1.5
v 1.7 2.3 -1.5
v 2.2 2.3 -1.5
v 2.3 2.3 -1.5
v 2.4 2.3 -1.5
v 1.6 2.3 -1.6
v 1.7 2.3 -1.6
v 1.8 2.3 -1.6
v 1.9 2.3 -1.6
v 2.1 2.3 -1.6
v 2.2 2.3 -1.6
v 2.3 2.3 -1.6
v 2.3 2.3 -1.7
v 2.4 2.3 -1.7
v 2.3 2.3 -1.8
v 2.4 2.3 -1.8
v 1.6 2.3 -2.1
v 1.7 2.3 -2.1
v 1.6 2.3 -2.2
v 1.7 2.3 -2.2
v 1.8 2.3 -2.2
v 1.9 2.3 -2.2
v 2.3 2.3 -2.2
v 2.4 2.3 -2.2
v 1.6 2.3 -2.3
v 1.8 2.3 -2.3
v 1.9 2.3 -2.3
v 2.3 2.3 -2.3
v 2.4 2.3 -2.3
v 1.6 2.5 -1.5
v 1.9 2.5 -1.5
v 2 2.5 -1.5
v 2.4 2.5 -1.5
v 1.8 2.5 -1.6
v 1.9 2.5 -1.6
v 2 2.5 -1.6
v 2.1 2.5 -1.6
v 2.2 2.5 -1.6
v 1.6 2.5 -1.7
v 1.7 2.5 -1.7
v 1.8 2.5 -1.7
v 1.9 2.5 -1.7
v 2.1 2.5 -1.7
v 2.2 2.5 -1.7
v 2.3 2.5 -1.7
v 1.6 2.5 -1.8
v 1.7 2.5 -1.8
v 1.8 2.5 -1.8
v 2.2 2.5 -1.8
v 2.3 2.5 -1.8
v 2.4 2.5 -1.8
v 1.6 2.5 -1.9
v 1.7 2.5 -1.9
v 2.3 2.5 -1.9
v 2.4 2.5 -1.9
v 1.6 2.5 -2
v 1.7 2.5 -2
v 1.8 2.5 -2
v 2.2 2.5 -2
v 2.3 2.5 -2
v 2.4 2.5 -2
v 1.7 2.5 -2.1
v 1.8 2.5 -2.1
v 1.9 2.5 -2.1
v 2.1 2.5 -2.1
v 2.2 2.5 -2.1
v 2.3 2.5 -2.1
v 2.4 2.5 -2.1
v 1.7 2.5 -2.2
v 1.8 2.5 -2.2
v 1.9 2.5 -2.2
v 2 2.5 -2.2
v 2.1 2.5 -2.2
v 2.2 2.5 -2.2
v 2.3 2.5 -2.2
v 1.6 2.5 -2.3
v 1.7 2.5 -2.3
v 1.8 2.5 -2.3
v 2 2.5 -2.3
v 2.1 2.5 -2.3
v 2.2 2.5 -2.3
v 2.3 2.5 -2.3
v 2.4 2.5 -2.3
v 1.8 2.6 -1.6
v 1.9 2.6 -1.6
v 2.1 2.6 -1.6
v 2.2 2.6 -1.6
v 1.7 2.6 -1.7
v 1.8 2.6 -1.7
v 1.9 2.6 -1.7
v 2.1 2.6 -1.7
v 2.2 2.6 -1.7
v 2.3 2.6 -1.7
v 1.7 2.6 -1.8
v 1.8 2.6 -1.8
v 2.2 2.6 -1.8
v 2.3 2.6 -1.8
v 1.7 2.6 -2
v 1.8 2.6 -2
v 1.9 2.6 -2
v 2.1 2.6 -2
v 2.2 2.6 -2
v 2.3 2.6 -2
v 1.7 2.6 -2.1
v 1.8 2.6 -2.1
v 1.9 2.6 -2.1
v 2.1 2.6 -2.1
v 2.2 2.6 -2.1
v 2.3 2.6 -2.1
v 1.8 2.6 -2.2
v 1.9 2.6 -2.2
v 2.1 2.6 -2.2
v 2.2 2.6 -2.2
v 1.8 2.7 -1.7
v 1.9 2.7 -1.7
v 2 2.7 -1.7
v 2.2 2.7 -1.7
v 1.8 2.7 -1.8
v 1.9 2.7 -1.8
v 2 2.7 -1.8
v 2.1 2.7 -1.8
v 1.8 2.7 -1.9
v 1.9 2.7 -1.9
v 2.1 2.7 -1.9
v 2.2 2.7 -1.9
v 1.9 2.7 -2
v 2.1 2.7 -2
v 2.2 2.7 -2
v 1.8 2.7 -2.1
v 1.9 2.7 -2.1
v 2.1 2.7 -2.1
v 2.2 2.7 -2.1
v 1.9 2.8 -1.8
v 2 2.8 -1.8
v 2.1 2.8 -1.8
v 2 2.8 -1.9
v 2.1 2.8 -1.9
v 1.9 2.8 -2
v 2.1 2.8 -2

# faces
f 6/4/1 2/4/1 1/4/1
f 7/1/1 3/1/1 2/1/1
f 7/4/1 2/4/1 6/4/1
f 8/1/1 3/1/1 7/1/1
f 9/1/1 3/1/1 8/1/1
f 10/1/1 3/1/1 9/1/1
f 11/1/1 3/1/1 10/1/1
f 12/4/1 4/4/1 3/4/1
f 12/1/1 3/1/1 11/1/1
f 13/1/1 5/1/1 4/1/1
f 13/4/1 4/4/1 12/4/1
f 14/1/1 7/1/1 6/1/1
f 14/1/1 8/1/1 7/1/1
f 15/4/1 9/4/1 8/4/1
f 15/1/1 8/1/1 14/1/1
f 16/1/1 10/1/1 9/1/1
f 16/4/1 9/4/1 15/4/1
f 17/4/1 11/4/1 10/4/1
f 17/1/1 10/1/1 16/1/1
f 18/1/1 12/1/1 11/1/1
f 18/4/1 11/4/1 17/4/1
f 18/1/1 13/1/1 12/1/1
f 19/1/1 5/1/1 13/1/1
f 19/1/1 13/1/1 18/1/1
f 22/4/1 21/4/1 20/4/1
f 23/4/1 21/4/1 22/4/1
f 24/4/1 21/4/1 23/4/1
f 29/4/1 26/4/1 25/4/1
f 30/4/1 26/4/1 29/4/1
f 31/1/1 28/1/1 27/1/1
f 32/1/1 28/1/1 31/1/1
f 39/1/1 34/1/1 33/1/1
f 40/1/1 34/1/1 39/1/1
f 41/1/1 36/1/1 35/1/1
f 42/1/1 36/1/1 41/1/1
f 43/1/1 36/1/1 42/1/1
f 44/1/1 38/1/1 37/1/1
f 45/1/1 38/1/1 44/1/1
f 46/1/1 41/1/1 40/1/1
f 47/4/1 42/4/1 41/4/1
f 47/1/1 41/1/1 46/1/1
f 48/1/1 43/1/1 42/1/1
f 48/4/1 42/4/1 47/4/1
f 48/1/1 44/1/1 43/1/1
f 49/1/1 44/1/1 48/1/1
f 53/1/1 51/1/1 50/1/1
f 53/1/1 52/1/1 51/1/1
f 54/1/1 52/1/1 53/1/1
f 59/4/1 56/4/1 55/4/1
f 60/4/1 56/4/1 59/4/1
f 62/1/1 58/1/1 57/1/1
f 63/1/1 58/1/1 62/1/1
f 64/1/1 62/1/1 61/1/1
f 65/1/1 62/1/1 64/1/1
f 66/1/2 67/1/2 70/1/2
f 70/1/2 67/1/2 71/1/2
f 68/1/2 69/1/2 73/1/2
f 73/1/2 69/1/2 74/1/2
f 72/1/2 73/1/2 75/1/2
f 75/1/2 73/1/2 76/1/2
f 77/4/2 78/4/2 80/4/2
f 78/1/2 79/1/2 81/1/2
f 80/4/2 78/4/2 81/4/2
f 81/1/2 79/1/2 82/1/2
f 83/4/2 84/4/2 89/4/2
f 89/4/2 84/4/2 90/4/2
f 85/1/2 86/1/2 91/1/2
f 91/1/2 86/1/2 92/1/2
f 92/1/2 86/1/2 93/1/2
f 87/1/2 88/1/2 94/1/2
f 94/1/2 88/1/2 95/1/2
f 90/1/2 91/1/2 96/1/2
f 91/1/2 92/1/2 96/1/2
f 92/4/2 93/4/2 97/4/2
f 96/1/2 92/1/2 97/1/2
f 93/1/2 94/1/2 98/1/2
f 97/4/2 93/4/2 98/4/2
f 98/1/2 94/1/2 99/1/2
f 100/4/2 101/4/2 102/4/2
f 102/4/2 101/4/2 103/4/2
f 103/4/2 101/4/2 104/4/2
f 104/4/2 101/4/2 105/4/2
f 106/4/2 107/4/2 110/4/2
f 110/4/2 107/4/2 111/4/2
f 108/4/2 109/4/2 112/4/2
f 112/4/2 109/4/2 113/4/2
f 114/1/2 115/1/2 119/1/2
f 115/4/2 116/4/2 119/4/2
f 116/1/2 117/1/2 120/1/2
f 119/4/2 116/4/2 120/4/2
f 120/1/2 117/1/2 121/1/2
f 121/1/2 117/1/2 122/1/2
f 122/1/2 117/1/2 123/1/2
f 117/4/2 118/4/2 124/4/2
f 123/1/2 117/1/2 124/1/2
f 124/4/2 118/4/2 125/4/2
f 114/1/2 119/1/2 126/1/2
f 119/1/2 120/1/2 126/1/2
f 120/4/2 121/4/2 127/4/2
f 126/1/2 120/1/2 127/1/2
f 121/1/2 122/1/2 128/1/2
f 127/4/2 121/4/2 128/4/2
f 122/4/2 123/4/2 129/4/2
f 128/1/2 122/1/2 129/1/2
f 124/1/2 125/1/2 130/1/2
f 129/4/2 123/4/2 130/4/2
f 123/1/2 124/1/2 130/1/2
f 130/1/2 125/1/2 131/1/2
f 135/4/3 133/4/3 132/4/3
f 136/1/3 134/1/3 133/1/3
f 136/4/3 133/4/3 135/4/3
f 137/1/3 136/1/3 135/1/3
f 137/1/3 134/1/3 136/1/3
f 138/1/3 134/1/3 137/1/3
f 139/1/3 137/1/3 135/1/3
f 139/4/3 138/4/3 137/4/3
f 140/4/3 138/4/3 139/4/3
f 141/1/3 139/1/3 135/1/3
f 141/1/3 140/1/3 139/1/3
f 142/1/3 140/1/3 141/1/3
f 143/4/3 142/4/3 141/4/3
f 144/1/3 140/1/3 142/1/3
f 144/4/3 142/4/3 143/4/3
f 145/1/3 144/1/3 143/1/3
f 146/1/3 140/1/3 144/1/3
f 146/1/3 144/1/3 145/1/3
f 149/4/3 148/4/3 147/4/3
f 150/4/3 148/4/3 149/4/3
f 153/4/3 149/4/3 147/4/3
f 153/5/3 150/5/3 149/5/3
f 154/5/3 150/5/3 153/5/3
f 155/1/3 152/1/3 151/1/3
f 156/1/3 152/1/3 155/1/3
f 157/4/3 154/4/3 153/4/3
f 157/4/3 153/4/3 147/4/3
f 158/4/3 154/4/3 157/4/3
f 161/4/3 157/4/3 147/4/3
f 161/5/3 158/5/3 157/5/3
f 162/5/3 158/5/3 161/5/3
f 163/4/3 160/4/3 159/4/3
f 164/4/3 160/4/3 163/4/3
f 165/4/3 162/4/3 161/4/3
f 165/4/3 161/4/3 147/4/3
f 166/4/3 162/4/3 165/4/3
f 169/4/3 168/4/3 167/4/3
f 170/4/3 168/4/3 169/4/3
f 173/1/3 171/1/3 170/1/3
f 174/1/3 171/1/3 173/1/3
f 175/1/3 173/1/3 172/1/3
f 175/4/3 174/4/3 173/4/3
f 176/4/3 174/4/3 175/4/3
f 177/1/3 175/1/3 172/1/3
f 177/1/3 176/1/3 175/1/3
f 178/1/3 176/1/3 177/1/3
f 180/1/3 176/1/3 178/1/3
f 181/1/3 176/1/3 180/1/3
f 182/4/3 180/4/3 179/4/3
f 183/4/3 180/4/3 182/4/3
f 186/1/3 185/1/3 184/1/3
f 187/1/3 185/1/3 186/1/3
f 188/4/3 187/4/3 186/4/3
f 189/4/3 187/4/3 188/4/3
f 192/1/3 191/1/3 190/1/3
f 193/1/3 191/1/3 192/1/3
f 196/4/3 195/4/3 194/4/3
f 197/4/3 195/4/3 196/4/3
f 198/4/4 199/4/4 200/4/4
f 200/4/4 199/4/4 201/4/4
f 202/4/4 203/4/4 204/4/4
f 204/4/4 203/4/4 205/4/4
f 206/1/4 207/1/4 209/1/4
f 207/1/4 208/1/4 209/1/4
f 209/1/4 208/1/4 210/1/4
f 210/1/4 208/1/4 211/1/4
f 212/1/4 213/1/4 214/1/4
f 214/1/4 213/1/4 215/1/4
f 215/1/4 216/1/4 218/1/4
f 218/1/4 216/1/4 219/1/4
f 217/1/4 218/1/4 220/1/4
f 220/1/4 218/1/4 221/1/4
f 221/1/4 222/1/4 224/1/4
f 224/1/4 222/1/4 225/1/4
f 223/4/4 224/4/4 226/4/4
f 226/4/4 224/4/4 227/4/4
f 228/4/4 229/4/4 230/4/4
f 228/4/4 230/4/4 233/4/4
f 231/1/4 232/1/4 234/1/4
f 234/1/4 232/1/4 235/1/4
f 236/1/4 237/1/4 238/1/4
f 238/1/4 237/1/4 239/1/4
f 228/4/4 233/4/4 240/4/4
f 240/4/4 233/4/4 241/4/4
f 242/1/4 243/1/4 244/1/4
f 244/1/4 243/1/4 245/1/4
f 242/1/4 244/1/4 246/1/4
f 244/4/4 245/4/4 247/4/4
f 246/1/4 244/1/4 247/1/4
f 247/4/4 245/4/4 248/4/4
f 246/4/4 247/4/4 249/4/4
f 247/1/4 248/1/4 250/1/4
f 249/4/4 247/4/4 250/4/4
f 249/1/4 250/1/4 251/1/4
f 250/1/4 248/1/4 251/1/4
f 251/1/4 248/1/4 252/1/4
f 249/1/4 251/1/4 253/1/4
f 251/4/4 252/4/4 253/4/4
f 253/4/4 252/4/4 254/4/4
f 249/1/4 253/1/4 255/1/4
f 253/1/4 254/1/4 255/1/4
f 255/1/4 254/1/4 256/1/4
f 249/1/4 255/1/4 257/1/4
f 255/4/4 256/4/4 258/4/4
f 257/1/4 255/1/4 258/1/4
f 258/4/4 256/4/4 259/4/4
f 257/4/4 258/4/4 260/4/4
f 258/1/4 259/1/4 261/1/4
f 260/4/4 258/4/4 261/4/4
f 261/1/4 259/1/4 262/1/4
f 265/4/5 264/4/5 263/4/5
f 266/4/5 264/4/5 265/4/5
f 272/4/5 268/4/5 267/4/5
f 273/1/5 269/1/5 268/1/5
f 273/4/5 268/4/5 272/4/5
f 274/1/5 269/1/5 273/1/5
f 275/1/5 269/1/5 274/1/5
f 276/1/5 269/1/5 275/1/5
f 277/4/5 270/4/5 269/4/5
f 277/1/5 269/1/5 276/1/5
f 278/1/5 271/1/5 270/1/5
f 278/4/5 270/4/5 277/4/5
f 279/1/5 271/1/5 278/1/5
f 280/1/5 271/1/5 279/1/5
f 281/4/5 280/4/5 279/4/5
f 282/4/5 280/4/5 281/4/5
f 283/1/5 273/1/5 272/1/5
f 284/1/5 273/1/5 283/1/5
f 285/4/5 284/4/5 283/4/5
f 286/4/5 284/4/5 285/4/5
f 289/1/5 282/1/5 281/1/5
f 290/1/5 282/1/5 289/1/5
f 291/1/5 286/1/5 285/1/5
f 291/1/5 287/1/5 286/1/5
f 292/4/5 288/4/5 287/4/5
f 292/1/5 287/1/5 291/1/5
f 293/1/5 289/1/5 288/1/5
f 293/4/5 288/4/5 292/4/5
f 294/4/5 290/4/5 289/4/5
f 294/1/5 289/1/5 293/1/5
f 295/4/5 290/4/5 294/4/5
f 296/1/6 297/1/6 300/1/6
f 297/4/6 298/4/6 301/4/6
f 300/1/6 297/1/6 301/1/6
f 298/1/6 299/1/6 302/1/6
f 301/4/6 298/4/6 302/4/6
f 302/1/6 299/1/6 303/1/6
f 303/1/6 299/1/6 304/1/6
f 296/1/6 300/1/6 305/1/6
f 305/1/6 300/1/6 306/1/6
f 306/1/6 300/1/6 307/1/6
f 302/1/6 303/1/6 308/1/6
f 301/1/6 302/1/6 308/1/6
f 308/1/6 303/1/6 309/1/6
f 304/1/6 299/1/6 310/1/6
f 310/1/6 299/1/6 311/1/6
f 305/4/6 306/4/6 312/4/6
f 312/4/6 306/4/6 313/4/6
f 311/1/6 299/1/6 316/1/6
f 316/1/6 299/1/6 317/1/6
f 313/1/6 314/1/6 318/1/6
f 312/1/6 313/1/6 318/1/6
f 318/1/6 314/1/6 319/1/6
f 316/4/6 317/4/6 320/4/6
f 315/1/6 316/1/6 320/1/6
f 320/4/6 317/4/6 321/4/6
f 318/4/6 319/4/6 322/4/6
f 319/1/6 314/1/6 323/1/6
f 322/4/6 319/4/6 323/4/6
f 323/1/6 314/1/6 324/1/6
f 315/1/6 320/1/6 325/1/6
f 320/1/6 321/1/6 325/1/6
f 325/1/6 321/1/6 326/1/6
f 326/1/6 321/1/6 327/1/6
f 322/1/6 323/1/6 328/1/6
f 326/4/6 327/4/6 333/4/6
f 333/4/6 327/4/6 334/4/6
f 322/1/6 328/1/6 335/1/6
f 328/1/6 329/1/6 335/1/6
f 335/1/6 329/1/6 336/1/6
f 330/1/6 331/1/6 337/1/6
f 337/1/6 331/1/6 338/1/6
f 338/1/6 331/1/6 339/1/6
f 333/1/6 334/1/6 340/1/6
f 332/1/6 333/1/6 340/1/6
f 340/1/6 334/1/6 341/1/6
f 322/1/6 335/1/6 342/1/6
f 335/4/6 336/4/6 343/4/6
f 342/1/6 335/1/6 343/1/6
f 337/1/6 338/1/6 344/1/6
f 343/4/6 336/4/6 344/4/6
f 336/1/6 337/1/6 344/1/6
f 338/4/6 339/4/6 345/4/6
f 344/1/6 338/1/6 345/1/6
f 339/1/6 340/1/6 346/1/6
f 345/4/6 339/4/6 346/4/6
f 340/4/6 341/4/6 347/4/6
f 346/1/6 340/1/6 347/1/6
f 341/1/6 334/1/6 348/1/6
f 347/4/6 341/4/6 348/4/6
f 348/1/6 334/1/6 349/1/6
f 350/1/6 351/1/6 355/1/6
f 355/1/6 351/1/6 356/1/6
f 352/4/6 353/4/6 357/4/6
f 357/4/6 353/4/6 358/4/6
f 354/4/6 355/4/6 360/4/6
f 360/4/6 355/4/6 361/4/6
f 358/4/6 359/4/6 362/4/6
f 362/4/6 359/4/6 363/4/6
f 364/1/6 365/1/6 370/1/6
f 370/1/6 365/1/6 371/1/6
f 366/1/6 367/1/6 372/1/6
f 372/1/6 367/1/6 373/1/6
f 368/4/6 369/4/6 374/4/6
f 374/4/6 369/4/6 375/4/6
f 371/1/6 372/1/6 376/1/6
f 376/1/6 372/1/6 377/1/6
f 373/1/6 374/1/6 378/1/6
f 378/1/6 374/1/6 379/1/6
f 380/1/6 381/1/6 384/1/6
f 381/4/6 382/4/6 385/4/6
f 384/1/6 381/1/6 385/1/6
f 382/1/6 383/1/6 386/1/6
f 385/4/6 382/4/6 386/4/6
f 386/1/6 383/1/6 387/1/6
f 384/4/6 385/4/6 388/4/6
f 388/4/6 385/4/6 389/4/6
f 387/1/6 383/1/6 390/1/6
f 390/1/6 383/1/6 391/1/6
f 388/1/6 389/1/6 392/1/6
f 390/4/6 391/4/6 393/4/6
f 393/4/6 391/4/6 394/4/6
f 388/1/6 392/1/6 395/1/6
f 395/1/6 392/1/6 396/1/6
f 393/1/6 394/1/6 397/1/6
f 397/1/6 394/1/6 398/1/6
f 399/1/6 400/1/6 402/1/6
f 400/4/6 401/4/6 402/4/6
f 402/4/6 401/4/6 403/4/6
f 399/1/6 402/1/6 404/1/6
f 402/1/6 403/1/6 404/1/6
f 404/1/6 403/1/6 405/1/6
